"Symbol","Name","Twitter"
"ALK","Alaska Air Group, Inc.","AlaskaAir"
"ALGT","Allegiant Travel Company","Allegiant"
"AAL","American Airlines Group, Inc.","AmericanAir"
"DAL","Delta Air Lines, Inc.","Delta"
"JBLU","JetBlue Airways Corporation","JetBlue"
"LTM","LATAM Airlines Group S.A.","LATAMAirlinesUS"
"MESA","Mesa Air Group, Inc.","MesaAirlines"
"SKYW","SkyWest, Inc.","SkyWestAirlines"
"LUV","Southwest Airlines Company","SouthwestAir"
"SAVE","Spirit Airlines, Inc.","SpiritAirlines"
"UAL","United Continental Holdings, Inc.","united"
