state,polarity
AR,0.9062433942296352
AZ,0.6226983480376728
CA,0.6338177288249439
CO,0.9200546895621377
FL,0.5516764079512076
GA,0.5071265179588963
IA,0.6117843495946365
ID,0.5832814896120015
IL,0.6322756929951999
IN,0.641122488962103
KS,0.621666605189742
KY,0.6477430900060275
LA,0.6513088372397893
MD,0.979163714183638
MI,0.4860480326963759
MO,0.5102209730770877
NC,0.6283010750567599
ND,0.9741978816645585
NM,0.6166997986763711
NV,0.6613971823058311
NY,0.6872536892974196
OH,0.5903435915458779
OK,0.2433474308025648
OR,0.22922957110503397
PA,0.7449866213155077
RI,0.7228306744534138
SC,0.6961077127635215
SD,0.2615722295364958
TX,0.6482163907292022
UT,0.4434462868662937
VA,0.2442752954293712
WI,0.8387447157325603
